Projects
…
url = 'https://raw.githubusercontent.com/nytimes/covid-19-data/master/us-counties.csv'

read_csv(url)

## Parsed with column specification:
## cols(
##   date = col_date(format = ""),
##   county = col_character(),
##   state = col_character(),
##   fips = col_character(),
##   cases = col_double(),
##   deaths = col_double()
## )

## # A tibble: 427,831 x 6
##    date       county      state      fips  cases deaths
##    <date>     <chr>       <chr>      <chr> <dbl>  <dbl>
##  1 2020-01-21 Snohomish   Washington 53061     1      0
##  2 2020-01-22 Snohomish   Washington 53061     1      0
##  3 2020-01-23 Snohomish   Washington 53061     1      0
##  4 2020-01-24 Cook        Illinois   17031     1      0
##  5 2020-01-24 Snohomish   Washington 53061     1      0
##  6 2020-01-25 Orange      California 06059     1      0
##  7 2020-01-25 Cook        Illinois   17031     1      0
##  8 2020-01-25 Snohomish   Washington 53061     1      0
##  9 2020-01-26 Maricopa    Arizona    04013     1      0
## 10 2020-01-26 Los Angeles California 06037     1      0
## # … with 427,821 more rows
…
head(counties)

##         date    county      state  fips cases deaths
## 1 2020-01-21 Snohomish Washington 53061     1      0
## 2 2020-01-22 Snohomish Washington 53061     1      0
## 3 2020-01-23 Snohomish Washington 53061     1      0
## 4 2020-01-24      Cook   Illinois 17031     1      0
## 5 2020-01-24 Snohomish Washington 53061     1      0
## 6 2020-01-25    Orange California  6059     1      0

select(state,cases)

## # A tibble: 427,831 x 1
##    cases
##    <dbl>
##  1     1
##  2     1
##  3     1
##  4     1
##  5     1
##  6     1
##  7     1
##  8     1
##  9     1
## 10     1
## # … with 427,821 more rows
…
