Lab2
…
Xingxin Li

8/17/2020

library(dplyr) 
library(ggplot2)
library(tidyverse)
library(zoo)
library(knitr)
library(readxl)

url = 'https://raw.githubusercontent.com/nytimes/covid-19-data/master/us-counties.csv'
read_csv(url)

## # A tibble: 531,243 x 6
##    date       county      state      fips  cases deaths
##    <date>     <chr>       <chr>      <chr> <dbl>  <dbl>
##  1 2020-01-21 Snohomish   Washington 53061     1      0
##  2 2020-01-22 Snohomish   Washington 53061     1      0
##  3 2020-01-23 Snohomish   Washington 53061     1      0
##  4 2020-01-24 Cook        Illinois   17031     1      0
##  5 2020-01-24 Snohomish   Washington 53061     1      0
##  6 2020-01-25 Orange      California 06059     1      0
##  7 2020-01-25 Cook        Illinois   17031     1      0
##  8 2020-01-25 Snohomish   Washington 53061     1      0
##  9 2020-01-26 Maricopa    Arizona    04013     1      0
## 10 2020-01-26 Los Angeles California 06037     1      0
## # … with 531,233 more rows
…
